<?xml version="1.0" encoding="utf-8"?>
<!-- Generator: Adobe Illustrator 16.0.0, SVG Export Plug-In . SVG Version: 6.00 Build 0)  -->
<!DOCTYPE svg PUBLIC "-//W3C//DTD SVG 1.1//EN" "http://www.w3.org/Graphics/SVG/1.1/DTD/svg11.dtd">
<svg version="1.1" id="Layer_1" xmlns="http://www.w3.org/2000/svg" xmlns:xlink="http://www.w3.org/1999/xlink" x="0px" y="0px"
	 width="648px" height="648px" viewBox="0 0 648 648" enable-background="new 0 0 648 648" xml:space="preserve">
<g>
	<path fill-rule="evenodd" clip-rule="evenodd" d="M326.474,155.001c0.411,0.193,0.733,0.316,1.025,0.488
		c5.46,3.197,10.929,6.378,16.37,9.609c2.087,1.24,3.2,3.09,3.2,5.582c-0.006,45.152-0.006,90.303,0,135.454
		c0.003,2.924-1.188,5.081-3.759,6.54c-5.354,3.031-10.676,6.124-16.011,9.192c-0.245,0.141-0.497,0.265-0.826,0.441
		C326.474,266.525,326.474,210.831,326.474,155.001z"/>
</g>
<g>
	<path fill-rule="evenodd" clip-rule="evenodd" d="M319.493,326.361c-48.369,27.927-96.595,55.768-144.964,83.694
		c-0.034-0.49-0.072-0.793-0.072-1.099c0.012-4.716,0.023-9.434,0.047-14.149c0.007-1.592,0.054-3.181,0.075-4.772
		c0.034-2.576,1.095-4.503,3.382-5.824c23.355-13.456,46.698-26.935,70.044-40.412c15.762-9.101,31.526-18.204,47.284-27.31
		c2.452-1.418,4.866-1.384,7.307,0.04c5.289,3.089,10.592,6.152,15.892,9.225C318.78,325.924,319.068,326.105,319.493,326.361z"/>
</g>
<g>
	<path fill-rule="evenodd" clip-rule="evenodd" d="M328.593,326.312c4.56-2.629,8.988-5.182,13.416-7.743
		c1.101-0.635,2.203-1.271,3.28-1.942c2.518-1.568,5.036-1.622,7.611-0.133c23.717,13.704,47.436,27.406,71.157,41.104
		c15.364,8.872,30.727,17.745,46.104,26.594c2.285,1.313,3.337,3.24,3.355,5.833c0.038,6.22,0.102,12.439,0.15,18.657
		c0.005,0.393-0.053,0.784-0.091,1.339C425.2,382.093,376.968,354.245,328.593,326.312z"/>
</g>
<g>
	<path fill-rule="evenodd" clip-rule="evenodd" d="M326.418,330.347c48.363,27.92,96.591,55.77,144.945,83.685
		c-0.365,0.268-0.641,0.508-0.95,0.683c-5.523,3.146-11.037,6.307-16.585,9.41c-2.083,1.165-4.216,1.205-6.349-0.027
		c-39.08-22.573-78.158-45.143-117.251-67.695c-2.781-1.603-3.918-3.884-3.85-7.078c0.125-5.957,0.039-11.924,0.039-17.883
		C326.418,331.131,326.418,330.82,326.418,330.347z"/>
</g>
<g>
	<path fill-rule="evenodd" clip-rule="evenodd" d="M321.682,155.051c0,55.792,0,111.467,0,167.269
		c-0.288-0.151-0.532-0.273-0.766-0.41c-5.414-3.102-10.826-6.21-16.237-9.317c-2.395-1.372-3.57-3.453-3.57-6.206
		c0-45.296-0.002-90.59,0-135.887c0-2.279,1.033-4.068,2.921-5.204c5.57-3.351,11.205-6.597,16.816-9.879
		C321.083,155.279,321.355,155.193,321.682,155.051z"/>
</g>
<g>
	<path fill-rule="evenodd" clip-rule="evenodd" d="M321.721,330.287c0,0.481,0,0.798,0,1.111c0.018,6.135,0.006,12.268,0.062,18.402
		c0.027,2.886-1.176,4.986-3.653,6.415c-18.347,10.582-36.691,21.163-55.031,31.754c-20.567,11.877-41.14,23.735-61.677,35.66
		c-2.687,1.558-5.147,1.608-7.815,0.051c-5.239-3.059-10.539-6.012-15.811-9.015c-0.321-0.182-0.611-0.414-1.019-0.692
		C225.109,386.067,273.337,358.224,321.721,330.287z"/>
</g>
<g>
	<path d="M324.242,120.098L145.182,223.134l-0.299,206.589l178.763,103.552l179.06-103.031l0.302-206.587L324.242,120.098z
		 M477.476,415.633l-153.789,88.49l-153.535-88.939l0.257-177.436L324.2,149.253l153.536,88.942L477.476,415.633z"/>
</g>
<text transform="matrix(1 0 0 1 70 578.1357)" x="0" y="0" stroke="#000" stroke-width="2" stroke-miterlimit="10" font-family="Verdana" font-size="36" letter-spacing="8">LOSTINSOUND.LIVE</text>
</svg>
